<?xml version="1.0" encoding="UTF-8" standalone="no"?>
<svg xmlns:svg="http://www.w3.org/2000/svg"
   xmlns="http://www.w3.org/2000/svg"
   viewBox="0 0 24 24" height="24px" width="24px"
   fill="#000000"
   version="1.1">
  <g id="g4">
    <rect fill="none" height="24" width="24" />
  </g>
  <g style="fill:#666666">
    <g style="fill:#666666">
      <path
         d="M19.79,5.61C20.3,4.95,19.83,4,19,4H6.83l7.97,7.97L19.79,5.61z"
         style="fill:#666666" />
      <path
         d="M2.81,2.81L1.39,4.22L10,13v6c0,0.55,0.45,1,1,1h2c0.55,0,1-0.45,1-1v-2.17l5.78,5.78l1.41-1.41L2.81,2.81z"
         style="fill:#666666" />
    </g>
  </g>
</svg>
